<svg width="22" height="22" viewBox="0 0 22 22" fill="none" xmlns="http://www.w3.org/2000/svg">
<path fill-rule="evenodd" clip-rule="evenodd" d="M11.6664 1.64062C11.3848 1.64062 11.1562 1.86915 11.1562 2.15078C11.1562 2.43242 11.3848 2.66094 11.6664 2.66094C11.948 2.66094 12.1766 2.43242 12.1766 2.15078C12.1766 1.86915 11.948 1.64062 11.6664 1.64062Z" fill="#2670FF"/>
<path fill-rule="evenodd" clip-rule="evenodd" d="M16.5883 1.64062H13.307C13.0253 1.64062 12.7969 1.86907 12.7969 2.15078C12.7969 2.43249 13.0253 2.66094 13.307 2.66094H16.5883C16.87 2.66094 17.0984 2.43249 17.0984 2.15078C17.0984 1.86907 16.87 1.64062 16.5883 1.64062Z" fill="#2670FF"/>
<path fill-rule="evenodd" clip-rule="evenodd" d="M18.2289 6.23438H10.0258C9.74402 6.23438 9.51562 6.46282 9.51562 6.74453V9.20547C9.51562 9.48718 9.74402 9.71563 10.0258 9.71563H18.2289C18.5107 9.71563 18.7391 9.48718 18.7391 9.20547V6.74453C18.7391 6.46282 18.5107 6.23438 18.2289 6.23438ZM17.7188 8.69531H10.5359V7.25469H17.7188V8.69531Z" fill="#2670FF"/>
<path fill-rule="evenodd" clip-rule="evenodd" d="M10.8461 10.3359C10.1124 10.3359 9.51562 10.9327 9.51562 11.6664C9.51562 12.4001 10.1124 12.9969 10.8461 12.9969C11.5798 12.9969 12.1766 12.4001 12.1766 11.6664C12.1766 10.9327 11.5798 10.3359 10.8461 10.3359ZM10.8461 11.9766C10.6752 11.9766 10.5359 11.8373 10.5359 11.6664C10.5359 11.4955 10.6752 11.3563 10.8461 11.3563C11.017 11.3563 11.1562 11.4955 11.1562 11.6664C11.1562 11.8373 11.017 11.9766 10.8461 11.9766Z" fill="#2670FF"/>
<path fill-rule="evenodd" clip-rule="evenodd" d="M14.1273 10.3359C13.3936 10.3359 12.7969 10.9327 12.7969 11.6664C12.7969 12.4001 13.3936 12.9969 14.1273 12.9969C14.8611 12.9969 15.4578 12.4001 15.4578 11.6664C15.4578 10.9327 14.8611 10.3359 14.1273 10.3359ZM14.1273 11.9766C13.9564 11.9766 13.8172 11.8373 13.8172 11.6664C13.8172 11.4955 13.9564 11.3563 14.1273 11.3563C14.2983 11.3563 14.4375 11.4955 14.4375 11.6664C14.4375 11.8373 14.2983 11.9766 14.1273 11.9766Z" fill="#2670FF"/>
<path fill-rule="evenodd" clip-rule="evenodd" d="M17.4086 10.3359C16.6749 10.3359 16.0781 10.9327 16.0781 11.6664C16.0781 12.4001 16.6749 12.9969 17.4086 12.9969C18.1423 12.9969 18.7391 12.4001 18.7391 11.6664C18.7391 10.9327 18.1423 10.3359 17.4086 10.3359ZM17.4086 11.9766C17.2377 11.9766 17.0984 11.8373 17.0984 11.6664C17.0984 11.4955 17.2377 11.3563 17.4086 11.3563C17.5795 11.3563 17.7188 11.4955 17.7188 11.6664C17.7188 11.8373 17.5795 11.9766 17.4086 11.9766Z" fill="#2670FF"/>
<path fill-rule="evenodd" clip-rule="evenodd" d="M10.8461 13.6172C10.1124 13.6172 9.51562 14.2139 9.51562 14.9477C9.51562 15.6814 10.1124 16.2781 10.8461 16.2781C11.5798 16.2781 12.1766 15.6814 12.1766 14.9477C12.1766 14.2139 11.5798 13.6172 10.8461 13.6172ZM10.8461 15.2578C10.6752 15.2578 10.5359 15.1186 10.5359 14.9477C10.5359 14.7767 10.6752 14.6375 10.8461 14.6375C11.017 14.6375 11.1562 14.7767 11.1562 14.9477C11.1562 15.1186 11.017 15.2578 10.8461 15.2578Z" fill="#2670FF"/>
<path fill-rule="evenodd" clip-rule="evenodd" d="M14.1273 13.6172C13.3936 13.6172 12.7969 14.2139 12.7969 14.9477C12.7969 15.6814 13.3936 16.2781 14.1273 16.2781C14.8611 16.2781 15.4578 15.6814 15.4578 14.9477C15.4578 14.2139 14.8611 13.6172 14.1273 13.6172ZM14.1273 15.2578C13.9564 15.2578 13.8172 15.1186 13.8172 14.9477C13.8172 14.7767 13.9564 14.6375 14.1273 14.6375C14.2983 14.6375 14.4375 14.7767 14.4375 14.9477C14.4375 15.1186 14.2983 15.2578 14.1273 15.2578Z" fill="#2670FF"/>
<path fill-rule="evenodd" clip-rule="evenodd" d="M17.4086 13.6172C16.6749 13.6172 16.0781 14.2139 16.0781 14.9477C16.0781 15.6814 16.6749 16.2781 17.4086 16.2781C18.1423 16.2781 18.7391 15.6814 18.7391 14.9477C18.7391 14.2139 18.1423 13.6172 17.4086 13.6172ZM17.4086 15.2578C17.2377 15.2578 17.0984 15.1186 17.0984 14.9477C17.0984 14.7767 17.2377 14.6375 17.4086 14.6375C17.5795 14.6375 17.7188 14.7767 17.7188 14.9477C17.7188 15.1186 17.5795 15.2578 17.4086 15.2578Z" fill="#2670FF"/>
<path fill-rule="evenodd" clip-rule="evenodd" d="M10.8461 16.8984C10.1124 16.8984 9.51562 17.4952 9.51562 18.2289C9.51562 18.9626 10.1124 19.5594 10.8461 19.5594C11.5798 19.5594 12.1766 18.9626 12.1766 18.2289C12.1766 17.4952 11.5798 16.8984 10.8461 16.8984ZM10.8461 18.5391C10.6752 18.5391 10.5359 18.3998 10.5359 18.2289C10.5359 18.058 10.6752 17.9188 10.8461 17.9188C11.017 17.9188 11.1562 18.058 11.1562 18.2289C11.1562 18.3998 11.017 18.5391 10.8461 18.5391Z" fill="#2670FF"/>
<path fill-rule="evenodd" clip-rule="evenodd" d="M14.1273 16.8984C13.3936 16.8984 12.7969 17.4952 12.7969 18.2289C12.7969 18.9626 13.3936 19.5594 14.1273 19.5594C14.8611 19.5594 15.4578 18.9626 15.4578 18.2289C15.4578 17.4952 14.8611 16.8984 14.1273 16.8984ZM14.1273 18.5391C13.9564 18.5391 13.8172 18.3998 13.8172 18.2289C13.8172 18.058 13.9564 17.9188 14.1273 17.9188C14.2983 17.9188 14.4375 18.058 14.4375 18.2289C14.4375 18.3998 14.2983 18.5391 14.1273 18.5391Z" fill="#2670FF"/>
<path fill-rule="evenodd" clip-rule="evenodd" d="M17.4086 16.8984C16.6749 16.8984 16.0781 17.4952 16.0781 18.2289C16.0781 18.9626 16.6749 19.5594 17.4086 19.5594C18.1423 19.5594 18.7391 18.9626 18.7391 18.2289C18.7391 17.4952 18.1423 16.8984 17.4086 16.8984ZM17.4086 18.5391C17.2377 18.5391 17.0984 18.3998 17.0984 18.2289C17.0984 18.058 17.2377 17.9188 17.4086 17.9188C17.5795 17.9188 17.7188 18.058 17.7188 18.2289C17.7188 18.3998 17.5795 18.5391 17.4086 18.5391Z" fill="#2670FF"/>
<path fill-rule="evenodd" clip-rule="evenodd" d="M19.0492 4.59375H18.7391V0.510156C18.7391 0.228446 18.5107 0 18.2289 0H10.0258C9.74402 0 9.51562 0.228446 9.51562 0.510156V4.59375H7.82519C7.7739 3.90658 7.19851 3.36328 6.49844 3.36328H4.0375C3.33743 3.36328 2.76203 3.90658 2.71075 4.59375H2.15078C0.964752 4.59375 0 5.5585 0 6.74453V19.0492C0 20.2352 0.964752 21.2 2.15078 21.2H19.0492C20.2352 21.2 21.2 20.2352 21.2 19.0492V6.74453C21.2 5.5585 20.2352 4.59375 19.0492 4.59375ZM2.80664 4.69375C2.80664 4.69378 2.80664 4.69372 2.80664 4.69375V4.69375ZM10.5359 1.02031H17.7188V4.59375H10.5359V1.02031ZM3.72734 4.69375C3.72734 4.52282 3.86657 4.38359 4.0375 4.38359H6.49844C6.66937 4.38359 6.80859 4.52282 6.80859 4.69375V17.8188C6.80859 17.9897 6.66937 18.1289 6.49844 18.1289H4.0375C3.86657 18.1289 3.72734 17.9897 3.72734 17.8188V4.69375ZM20.1797 19.0492C20.1797 19.6725 19.6725 20.1797 19.0492 20.1797H2.15078C1.52753 20.1797 1.02031 19.6725 1.02031 19.0492V6.74453C1.02031 6.12128 1.52753 5.61406 2.15078 5.61406H2.70703V17.8188C2.70703 18.5525 3.30379 19.1492 4.0375 19.1492H6.49844C7.23215 19.1492 7.82891 18.5525 7.82891 17.8188V5.61406H19.0492C19.6725 5.61406 20.1797 6.12128 20.1797 6.74453V19.0492Z" fill="#2670FF"/>
</svg>
