<svg width="16" height="17" viewBox="0 0 16 17" fill="none" xmlns="http://www.w3.org/2000/svg">
<path d="M7.04606 0.835938C3.16097 0.835938 0 3.95376 0 7.78582C0 11.6181 3.16097 14.7357 7.04606 14.7357C10.9314 14.7357 14.0921 11.6181 14.0921 7.78582C14.0921 3.95376 10.9314 0.835938 7.04606 0.835938ZM7.04606 13.4527C3.87815 13.4527 1.30081 10.9105 1.30081 7.78585C1.30081 4.66119 3.87815 2.11899 7.04606 2.11899C10.214 2.11899 12.7913 4.66116 12.7913 7.78582C12.7913 10.9105 10.214 13.4527 7.04606 13.4527Z" fill="#0044C8"/>
<path d="M15.8094 15.5224L12.0804 11.8443C11.8263 11.5937 11.4148 11.5937 11.1607 11.8443C10.9067 12.0948 10.9067 12.5011 11.1607 12.7515L14.8897 16.4296C15.0168 16.5549 15.1831 16.6175 15.3496 16.6175C15.5159 16.6175 15.6824 16.5549 15.8094 16.4296C16.0635 16.1792 16.0635 15.7729 15.8094 15.5224Z" fill="#0044C8"/>
</svg>
