<svg width="263" height="37" viewBox="0 0 263 37" fill="none" xmlns="http://www.w3.org/2000/svg">
<path d="M236.526 9.2041V14.62H245.708V29.0802H252.837V14.6377H262.019V9.2041H236.526ZM227.471 16.0891H215.211V9.2041H208.081V29.0802H215.211V21.5227H227.471V29.0802H234.6V9.2041H227.471V16.0891ZM190.996 14.443L194.687 21.5404H187.342L190.996 14.443ZM206.677 29.0979L195.227 9.2041H187.18L175.694 29.0802H183.435L185.109 25.8767H196.955L198.63 29.0802H206.677V29.0979ZM150.201 29.0979C154.432 29.0979 156.196 27.4165 156.556 23.5404L157.258 14.6554H167.07V29.1156H174.199V9.2041H150.399L149.427 22.2483C149.337 23.5227 148.923 23.8944 147.501 23.8944H146.349V29.0979H150.201ZM120.424 29.0979C124.655 29.0979 126.419 27.4165 126.779 23.5404L127.481 14.6554H137.293V29.1156H144.422V9.2041H120.622L119.668 22.2307C119.578 23.505 119.164 23.8767 117.742 23.8767H116.589V29.0802H120.424V29.0979ZM94.3734 21.0448V9.2041H87.4962V29.0802H93.2752L107.786 16.974V29.0802H114.645V9.2041H108.578L94.3734 21.0448ZM77.6845 23.2749C77.6845 24.2129 77.3244 24.5315 76.2802 24.5315H65.7484V20.8147H76.2802C77.3424 20.8147 77.6845 21.1333 77.6845 22.0714V23.2749ZM75.6321 13.7882C76.6943 13.7882 77.0364 14.1068 77.0364 15.0448V15.8413C77.0364 16.7793 76.6763 17.0979 75.6321 17.0979H65.7484V13.7882H75.6321ZM81.9512 18.8324C83.4275 18.3545 84.1656 17.0979 84.1656 15.1333V13.6997C84.1656 10.6023 82.5633 9.2041 79.0887 9.2041H58.6191V29.0802H79.7368C83.1935 29.0802 84.8137 27.682 84.8137 24.5846V22.7085C84.8137 20.5492 83.8416 19.2572 81.9512 18.8324Z" fill="#D3D3D3"/>
<path fill-rule="evenodd" clip-rule="evenodd" d="M13.5564 11.0973C13.5384 11.0442 13.5204 10.9735 13.5024 10.9204C13.4844 10.8496 13.4484 10.7788 13.4304 10.7257C13.4124 10.6726 13.3763 10.6018 13.3403 10.5487C13.3223 10.4779 13.2863 10.4248 13.2503 10.3717C13.2143 10.3186 13.1783 10.2655 13.1423 10.2124C13.1063 10.1593 13.0703 10.1239 13.0163 10.0708C12.9803 10.0354 12.9443 9.9823 12.8903 9.9469C12.8543 9.9115 12.8182 9.87611 12.7642 9.84071C12.7282 9.80531 12.6742 9.78761 12.6382 9.75221C12.5842 9.73451 12.5482 9.69911 12.4942 9.68142C12.4582 9.66372 12.4222 9.64602 12.3682 9.62832C12.3322 9.61062 12.2962 9.61062 12.2421 9.59292C12.2061 9.59292 12.1701 9.57522 12.1341 9.57522C12.0981 9.57522 12.0621 9.57522 12.0261 9.55752H12.0081H11.9721H11.9361C11.9001 9.55752 11.8821 9.55752 11.8461 9.55752C11.8101 9.55752 11.7741 9.57522 11.7381 9.57522C11.7021 9.57522 11.684 9.59292 11.648 9.59292C11.63 9.62832 11.594 9.64602 11.558 9.64602L11.522 9.66372C11.486 9.68142 11.45 9.71681 11.396 9.73451C11.36 9.75221 11.324 9.78761 11.288 9.80531C11.252 9.84071 11.216 9.87611 11.18 9.9115C11.144 9.9469 11.1079 9.9823 11.0719 10.0177C11.0179 10.0531 10.9819 10.1062 10.9639 10.1416C10.9279 10.1947 10.8919 10.2301 10.8559 10.2832C10.8379 10.3363 10.8019 10.3894 10.7839 10.4425C10.7479 10.4956 10.7299 10.5487 10.7119 10.6018C10.6939 10.6549 10.6759 10.708 10.6579 10.7788C10.6399 10.8319 10.6219 10.885 10.6039 10.9558C10.5859 11.0265 10.5859 11.0796 10.5679 11.1327C10.5679 11.1858 10.5499 11.2566 10.5499 11.3274V11.3805V11.4336C10.5499 11.5044 10.5499 11.5752 10.5679 11.6283C10.5679 11.6991 10.5859 11.7522 10.6039 11.823C10.6399 11.9115 10.6579 11.9823 10.6759 12.0354C10.6939 12.1062 10.7119 12.1593 10.7479 12.2301C10.7659 12.2832 10.8019 12.354 10.8379 12.4071C10.8739 12.4602 10.9099 12.531 10.9279 12.5841C10.9459 12.6372 10.9819 12.6903 11.0179 12.7434C11.0539 12.7965 11.108 12.8496 11.144 12.885C11.18 12.9204 11.234 12.9735 11.27 13.0088C11.306 13.0442 11.36 13.0796 11.396 13.115C11.45 13.1327 11.486 13.1681 11.522 13.1858C11.558 13.2035 11.594 13.2389 11.63 13.2566L11.666 13.2743C11.7021 13.292 11.7561 13.3097 11.7921 13.3274C11.8461 13.3451 11.8821 13.3451 11.9181 13.3628C11.9541 13.3805 12.0081 13.3805 12.0441 13.3805C12.0801 13.3805 12.1161 13.3805 12.1521 13.3805H12.1881C12.2241 13.3805 12.2602 13.3805 12.2962 13.3805C12.3322 13.3805 12.3682 13.3628 12.4042 13.3628C12.4402 13.3628 12.4762 13.3451 12.4942 13.3274C12.5482 13.3274 12.5842 13.3097 12.6022 13.3097L12.6382 13.292C12.6922 13.2743 12.7282 13.2389 12.7642 13.2212C12.8002 13.2035 12.8363 13.1681 12.8723 13.1504C12.9263 13.115 12.9623 13.0796 12.9983 13.0442C13.0343 13.0088 13.0703 12.9735 13.1063 12.9381C13.1423 12.9027 13.1783 12.8496 13.2143 12.8142C13.2503 12.7611 13.2863 12.7257 13.3043 12.6726C13.3403 12.6195 13.3583 12.5664 13.3944 12.5133C13.4124 12.4602 13.4484 12.4071 13.4664 12.354C13.4844 12.3009 13.5024 12.2478 13.5204 12.177C13.5384 12.1239 13.5564 12.0531 13.5564 12C13.5744 11.9292 13.5744 11.8761 13.5924 11.8053C13.5924 11.7522 13.6104 11.6814 13.6104 11.6283V11.5575V11.5044C13.6104 11.4336 13.6104 11.3628 13.5924 11.3097C13.5744 11.2389 13.5564 11.1681 13.5564 11.0973ZM13.4304 25.2743C13.4484 25.2212 13.4844 25.1504 13.5024 25.0796C13.5204 25.0089 13.5384 24.9558 13.5564 24.885C13.5744 24.8142 13.5744 24.7434 13.5924 24.6903C13.5924 24.6195 13.6104 24.5487 13.6104 24.4956V24.4425V24.3894C13.6104 24.3363 13.6104 24.2655 13.5924 24.2124C13.5924 24.1593 13.5744 24.0885 13.5564 24.0177C13.5384 23.9469 13.5384 23.8938 13.5204 23.8407C13.5024 23.7876 13.4844 23.7345 13.4664 23.6637C13.4484 23.6106 13.4124 23.5575 13.3944 23.5044C13.3763 23.4513 13.3403 23.3982 13.3043 23.3451C13.2683 23.292 13.2323 23.2389 13.2143 23.2035C13.1783 23.1681 13.1423 23.115 13.1063 23.0796C13.0703 23.0442 13.0343 23.0089 12.9983 22.9735C12.9623 22.9381 12.9263 22.9027 12.8903 22.885C12.8543 22.8496 12.8182 22.8319 12.7822 22.8142C12.7462 22.7965 12.7102 22.7611 12.6562 22.7434L12.6022 22.6903C12.5662 22.6726 12.5482 22.6726 12.5122 22.6549C12.4762 22.6372 12.4582 22.6372 12.4222 22.6195C12.3862 22.6195 12.3502 22.6018 12.3142 22.6018C12.2782 22.6018 12.2421 22.6018 12.2061 22.6018H12.1701C12.1341 22.6018 12.0981 22.6018 12.0621 22.6018C12.0261 22.6018 11.9901 22.6195 11.9361 22.6195C11.8821 22.6549 11.8461 22.6549 11.7921 22.6726C11.7561 22.6903 11.7021 22.708 11.666 22.7257L11.63 22.7434C11.594 22.7611 11.558 22.7788 11.522 22.8142C11.486 22.8319 11.45 22.8673 11.414 22.885C11.36 22.9204 11.324 22.9558 11.288 22.9911C11.234 23.0265 11.198 23.0796 11.162 23.115C11.126 23.1504 11.0719 23.2035 11.0359 23.2566C10.9999 23.3097 10.9639 23.3628 10.9279 23.4159C10.8919 23.469 10.8559 23.5221 10.8379 23.5929C10.8019 23.646 10.7839 23.7168 10.7479 23.7699C10.7299 23.823 10.6939 23.8938 10.6759 23.9646C10.6579 24.0177 10.6399 24.0885 10.6219 24.1593C10.6039 24.2301 10.6039 24.3009 10.5859 24.354C10.5859 24.4248 10.5679 24.4956 10.5679 24.5487V24.6018V24.6549C10.5679 24.7257 10.5679 24.7788 10.5859 24.8496C10.5859 24.9027 10.6039 24.9734 10.6219 25.0442C10.6399 25.115 10.6399 25.1681 10.6579 25.2212C10.6759 25.2743 10.6939 25.3451 10.7119 25.3982C10.7299 25.4513 10.7659 25.5044 10.7839 25.5575C10.8019 25.6106 10.8379 25.6637 10.8559 25.7168C10.8919 25.7699 10.9099 25.8053 10.9459 25.8584C10.9819 25.9115 11.0179 25.9469 11.0539 25.9823C11.0899 26.0177 11.126 26.0531 11.162 26.0885C11.198 26.1239 11.234 26.1593 11.27 26.177C11.306 26.1947 11.342 26.2301 11.378 26.2478C11.414 26.2655 11.45 26.3009 11.504 26.3186L11.54 26.3363C11.576 26.354 11.594 26.354 11.63 26.3717C11.666 26.3717 11.6841 26.3894 11.7201 26.3894C11.7561 26.3894 11.7921 26.4071 11.8101 26.4071C11.8461 26.4071 11.8821 26.4071 11.9001 26.4071H11.9181H11.9541H11.9901C12.0261 26.4071 12.0621 26.4071 12.0981 26.3894C12.1341 26.3894 12.1701 26.3717 12.2061 26.3717C12.2602 26.354 12.2962 26.354 12.3322 26.3363C12.3862 26.3186 12.4222 26.3009 12.4582 26.2832C12.4942 26.2655 12.5482 26.2301 12.5842 26.2124C12.6202 26.1947 12.6742 26.1593 12.7102 26.1239C12.7642 26.0885 12.8002 26.0531 12.8363 26.0177C12.8723 25.9823 12.9263 25.9292 12.9623 25.8938C12.9983 25.8407 13.0523 25.8053 13.0883 25.7522C13.1243 25.6991 13.1603 25.646 13.1963 25.5929C13.2323 25.5398 13.2683 25.4867 13.2863 25.4159C13.3763 25.3982 13.4124 25.3451 13.4304 25.2743ZM4.39277 26.0885C5.05889 26.0885 5.707 25.8053 6.2651 25.2743C6.75118 24.8319 7.20126 24.2301 7.56133 23.5044C7.50732 23.5221 7.47131 23.5575 7.4173 23.5752C7.18326 23.6814 6.93122 23.7522 6.67917 23.7522C5.83302 23.7522 5.05889 23.0973 4.50079 22.0354C3.9607 21.0089 3.61863 19.5752 3.58263 18C3.61863 16.4248 3.9607 14.9911 4.50079 13.9646C5.05889 12.9027 5.81502 12.2478 6.67917 12.2478C6.93122 12.2478 7.18326 12.3009 7.4173 12.4248C7.47131 12.4425 7.52532 12.4602 7.56133 12.4956C7.20126 11.7522 6.75118 11.1504 6.2651 10.708C5.689 10.1947 5.05889 9.9115 4.39277 9.9115C2.3044 9.9115 0.954167 12 0.360063 14.6726C0.126022 15.7168 0 16.8496 0 18C0 19.1504 0.126022 20.2832 0.360063 21.3451C0.954167 24.0177 2.3044 26.0885 4.39277 26.0885ZM4.30276 30.6903C4.32076 30.8142 4.33876 30.9204 4.35676 31.0266C4.39277 31.1327 4.41077 31.2566 4.46478 31.3451C4.50079 31.4513 4.5548 31.5398 4.60881 31.6283C4.66282 31.7168 4.71683 31.8053 4.77084 31.8761C4.82485 31.9469 4.89686 32 4.95087 32.0708C5.00488 32.1239 5.05889 32.1593 5.1129 32.177L5.1309 32.1947L5.18491 32.2124L5.22092 32.2301L5.27493 32.2478L5.31093 32.2655C5.32894 32.2655 5.36494 32.2832 5.38294 32.2832C5.40095 32.2832 5.41895 32.2832 5.45496 32.2832C5.47296 32.2832 5.50897 32.2832 5.52697 32.2655C5.54497 32.2655 5.58098 32.2478 5.59898 32.2478C5.63499 32.2301 5.65299 32.2301 5.689 32.2124C5.72501 32.1947 5.74301 32.177 5.77901 32.1593C5.81502 32.1416 5.83302 32.1062 5.86903 32.0708C5.88703 32.0354 5.92304 32.0177 5.94104 31.9823V31.9646C5.97705 31.9292 5.99505 31.8761 6.01306 31.8407C6.03106 31.7876 6.06707 31.7522 6.08507 31.6991C6.10307 31.646 6.12107 31.5929 6.13908 31.5398C6.15708 31.4867 6.17508 31.4336 6.17508 31.3805C6.19309 31.2743 6.21109 31.1681 6.21109 31.0619C6.21109 30.9558 6.21109 30.8319 6.21109 30.7257C6.19309 30.6195 6.17508 30.4956 6.15708 30.3894C6.12107 30.2832 6.10307 30.1593 6.04906 30.0531C6.01305 29.9469 5.95905 29.8584 5.90504 29.7699C5.85103 29.6814 5.79702 29.5929 5.72501 29.5221C5.671 29.4513 5.59898 29.3982 5.54497 29.3451C5.49096 29.292 5.41895 29.2566 5.34694 29.2212L5.29293 29.2035L5.25692 29.1858L5.20291 29.1681L5.16691 29.1504C5.1489 29.1504 5.1309 29.1504 5.09489 29.1327C5.07689 29.1327 5.05889 29.1327 5.02288 29.1327C5.00488 29.1327 4.96887 29.1327 4.95087 29.1504C4.93287 29.1504 4.89686 29.1681 4.87886 29.1681C4.84285 29.1858 4.82485 29.1858 4.78884 29.2035C4.75283 29.2212 4.73483 29.2389 4.69882 29.2566C4.66282 29.2743 4.64482 29.3097 4.60881 29.3451C4.5728 29.3805 4.5548 29.4159 4.51879 29.4513C4.48279 29.4867 4.46478 29.5398 4.44678 29.5752C4.42878 29.6283 4.39277 29.6637 4.37477 29.7168C4.35676 29.7699 4.33876 29.823 4.32076 29.8761C4.30276 29.9292 4.28475 29.9823 4.28475 30.0354C4.26675 30.1416 4.24875 30.2478 4.24875 30.354C4.28475 30.4602 4.28475 30.5664 4.30276 30.6903ZM35.0522 28.4248L35.0882 28.354C38.6528 21.5929 38.4728 8.56637 31.3075 4.0885C30.4793 3.57522 30.2273 3.68142 29.1831 3.68142H26.2126C24.7363 3.68142 24.2503 3.53982 23.2061 4.24779C22.882 4.46018 22.576 4.70796 22.2699 4.97345C22.63 4.97345 22.936 4.95575 23.2961 5.00885C26.1046 5.38053 28.499 8.42478 29.6512 12.708C30.6774 16.5664 30.6234 21.8407 29.1651 25.8761C28.9311 26.531 28.553 27.4513 28.247 28.0177L21.5678 30.3717C22.0899 29.3805 22.594 28.177 22.954 27.1327C24.1242 23.646 24.5923 19.3628 24.3943 16.2655C24.0162 10.2124 21.6038 4.38938 17.193 1.02655C15.9148 0.0707964 15.4647 0.0353982 13.5024 0.0176991L8.04741 0C6.96722 0 6.10307 0.0353982 5.20291 0.654867C4.87886 0.884956 4.5548 1.11504 4.24875 1.38053H5.56298C6.30111 1.38053 6.96722 1.34513 7.68735 1.45133C13.5924 2.23009 16.995 10.0354 17.013 17.8761C17.049 25.4159 13.9705 32.9911 8.5335 34.3894C7.48931 34.6549 6.8232 34.6195 5.77901 34.6195H4.24875C4.5548 34.885 4.87886 35.115 5.20291 35.3451C6.12107 35.9646 6.96722 36 8.04741 36L12.9083 35.9823L21.0817 36.0177C22.936 36.0354 24.3943 36.0708 26.1586 35.4159L30.6954 33.6991L33.8999 35.5044C34.6201 35.9115 34.8721 35.9646 35.7183 36C36.0423 36.0177 36.5644 36.0177 37.0325 36.0177H39.3549C40.7952 36.0177 41.7133 36.0885 42.5415 35.4336C45.35 33.2389 47.0963 30.531 48.3565 27.5221C51.8311 19.1504 50.5889 6.38938 42.7755 1.04425C41.5153 0.0884955 40.7411 0.0707965 38.7968 0.0530973L32.4777 0C31.3975 0 30.5334 0.0353982 29.6332 0.654867C29.3091 0.884956 28.9851 1.13274 28.661 1.38053C30.4073 1.38053 32.1356 1.25664 33.7739 1.75221C45.2059 5.15044 46.0881 22.9912 38.8688 30.5841L35.0522 28.4248ZM4.30276 5.30973C4.32076 5.18584 4.33876 5.07965 4.35676 4.97345C4.39277 4.86726 4.41077 4.74336 4.46478 4.65487C4.50079 4.54867 4.5548 4.44248 4.60881 4.35398C4.66282 4.26549 4.71683 4.17699 4.77084 4.10619C4.82485 4.0354 4.89686 3.9646 4.95087 3.9115C5.00488 3.85841 5.05889 3.82301 5.1129 3.80531L5.1309 3.78761L5.18491 3.76991L5.22092 3.75221L5.27493 3.73451L5.31093 3.71681C5.32894 3.71681 5.36494 3.69912 5.38294 3.69912C5.40095 3.69912 5.41895 3.69912 5.45496 3.69912C5.47296 3.69912 5.50897 3.69912 5.52697 3.71681C5.54497 3.71681 5.58098 3.73451 5.59898 3.73451C5.63499 3.75221 5.65299 3.75221 5.689 3.76991C5.707 3.80531 5.74301 3.84071 5.76101 3.85841C5.79702 3.87611 5.81502 3.9115 5.85103 3.9469C5.86903 3.9823 5.90504 4 5.92304 4.0354V4.0531C5.95905 4.0885 5.97705 4.14159 5.99505 4.17699C6.01305 4.23009 6.04906 4.26549 6.06706 4.31858C6.10307 4.35398 6.12107 4.42478 6.13908 4.47788C6.15708 4.53097 6.17508 4.58407 6.17508 4.63717C6.21109 4.74336 6.22909 4.84956 6.22909 4.95575C6.22909 5.06195 6.22909 5.18584 6.22909 5.29204C6.21109 5.41593 6.19309 5.52212 6.17508 5.64602C6.13908 5.75221 6.10307 5.85841 6.06706 5.9646C6.03106 6.0708 5.97705 6.15929 5.92304 6.24779C5.86903 6.33628 5.81502 6.42478 5.74301 6.49558C5.689 6.56637 5.61699 6.61947 5.56298 6.67257C5.50897 6.74336 5.43695 6.77876 5.38294 6.81416L5.32894 6.83186L5.29293 6.84956L5.23892 6.86726L5.20291 6.88496C5.18491 6.88496 5.16691 6.88496 5.1309 6.90266C5.1129 6.90266 5.09489 6.90266 5.05889 6.90266C5.04088 6.90266 5.00488 6.90266 4.98688 6.88496C4.96887 6.88496 4.93287 6.86726 4.91486 6.86726C4.89686 6.84956 4.87886 6.83186 4.84285 6.81416C4.82485 6.79646 4.78884 6.77876 4.75283 6.76106C4.73483 6.72566 4.69882 6.70796 4.66282 6.67257C4.64482 6.63717 4.60881 6.60177 4.59081 6.56637C4.5548 6.53097 4.5368 6.47788 4.50079 6.44248C4.48279 6.40708 4.46478 6.35398 4.44678 6.30088C4.41077 6.24779 4.39277 6.19469 4.37477 6.14159C4.35676 6.0885 4.35676 6.0354 4.33876 5.9823C4.32076 5.87611 4.30276 5.75221 4.30276 5.64602C4.28475 5.53982 4.28475 5.43363 4.30276 5.30973Z" fill="#0044C8"/>
</svg>
