<svg width="83" height="259" viewBox="0 0 83 259" fill="none" xmlns="http://www.w3.org/2000/svg">
<path fill-rule="evenodd" clip-rule="evenodd" d="M9.21875 259H16.0011L82.7834 129.5L33.3319 0H26.5496L76.0011 129.5L9.21875 259Z" fill="url(#paint0_linear)"/>
<path fill-rule="evenodd" clip-rule="evenodd" d="M0 259H3.78296L70.5653 129.5L21.1138 0H17.3308L66.7823 129.5L0 259Z" fill="white"/>
<defs>
<linearGradient id="paint0_linear" x1="46.0011" y1="0" x2="46.0011" y2="259" gradientUnits="userSpaceOnUse">
<stop stop-color="white"/>
<stop offset="1" stop-color="white"/>
</linearGradient>
</defs>
</svg>
