<svg width="94" height="95" viewBox="0 0 94 95" fill="none" xmlns="http://www.w3.org/2000/svg">
<path d="M81.4466 84.1407H54.6191C53.4816 84.1407 52.5586 85.0497 52.5586 86.1677L52.5682 88.8195H52.5513V91.0461C52.5513 91.7037 52.8791 92.3238 53.431 92.7043L53.4936 92.7442C53.7925 92.9157 54.1274 93.0049 54.4624 93.0049H81.637C81.8442 93.0049 82.0563 92.9673 82.266 92.8945L82.3624 92.8546C83.0637 92.507 83.4999 91.8165 83.4999 91.0484L83.4926 88.3967H83.5095V86.1701C83.5071 85.0497 82.5841 84.1407 81.4466 84.1407Z" fill="#FFE4E4"/>
<path d="M83.579 58.9103C83.1043 56.8834 82.2198 55.5258 80.945 54.8799C79.8219 54.3068 78.6748 54.4712 78.2169 54.5746L78.053 54.6168C77.9036 54.6662 77.7277 54.6215 77.6433 54.5182C76.6071 53.2616 75.3635 52.6627 73.9465 52.7308C73.4139 52.7566 72.8572 52.8835 72.3559 53.0925H72.3125L72.1173 53.2005C71.9848 53.2757 71.7992 53.2569 71.6884 53.1606C70.7388 52.3268 69.7508 51.9205 68.753 51.9627C67.7987 51.9956 67.0444 52.2681 66.6419 52.4818C66.4901 52.51 66.425 52.51 66.3768 52.5124L65.9864 52.5194L64.7453 52.4184C64.5935 52.4067 64.4706 52.2751 64.4706 52.1225V37.875C64.4706 37.0388 64.097 36.2473 63.4463 35.7C62.7981 35.1528 61.9329 34.9108 61.0798 35.033C59.6507 35.235 58.571 36.4868 58.571 37.9407V59.7371C58.571 60.5827 57.9854 61.3296 57.1467 61.548C56.3057 61.7664 55.4164 61.4071 54.9826 60.6743L51.5171 54.8212C51.1291 54.1588 50.4736 53.6703 49.7193 53.4753C48.9409 53.2757 48.1022 53.3978 47.4202 53.8089C46.7165 54.2316 46.2321 54.9175 46.0562 55.7348C45.9188 56.369 46.0441 57.0454 46.4129 57.6913C46.4201 57.7054 46.4273 57.7219 46.4321 57.7336L52.0184 72.6176L53.7873 75.9082C54.7922 77.7661 55.3224 79.8565 55.3248 81.9563V83.4994H80.6799L80.7136 80.9346C80.7208 79.6404 81.1161 78.3862 81.8535 77.3081L82.9356 75.7227C83.6152 74.7245 83.9743 73.5665 83.9694 72.3734V71.192L83.9767 71.0557C84.0562 69.3059 83.9526 60.4934 83.579 58.9103Z" fill="#FFE4E4"/>
<rect x="11" y="24" width="15" height="15" fill="#FFE4E4"/>
<rect x="11" y="50" width="15" height="15" fill="#FFE4E4"/>
<path d="M8.55316 6.22958H6.32803V8.47675H8.55316V6.22958Z" fill="#E30000"/>
<path d="M14.8836 6.22958H12.6584V8.47675H14.8836V6.22958Z" fill="#E30000"/>
<path d="M21.2139 6.22958H18.9887V8.47675H21.2139V6.22958Z" fill="#E30000"/>
<path d="M27.5419 25.1456V22.2087H9.49205V40.4373H27.5419V28.1063L31.6049 24.5981L30.159 22.889L27.5419 25.1456ZM25.3168 27.068L18.5076 32.9562L14.8694 29.3247L13.3133 30.9224L18.4066 36.0046L25.3168 30.0311V38.1878H11.7195V24.4558H25.3168V27.068Z" fill="#E30000"/>
<path d="M27.5419 50.7132V47.7762H9.49205V66.0049H27.5419V53.6739L31.6049 50.1656L30.159 48.4565L27.5419 50.7132ZM25.3168 52.6356L18.5076 58.5238L14.8694 54.8923L13.3133 56.4899L18.4066 61.5722L25.3168 55.5963V63.753H11.7195V50.021H25.3168V52.6356Z" fill="#E30000"/>
<path d="M52.8608 22.2087H47.4693V24.4558H52.8608V22.2087Z" fill="#E30000"/>
<path d="M84.5057 22.2087H56.9639V24.4558H84.5057V22.2087Z" fill="#E30000"/>
<path d="M84.5055 28.6016H47.4693V30.8487H84.5055V28.6016Z" fill="#E30000"/>
<path d="M52.8608 36.5902H47.4693V38.8373H52.8608V36.5902Z" fill="#E30000"/>
<path d="M84.5056 36.5902H69.6221V38.8373H84.5056V36.5902Z" fill="#E30000"/>
<path d="M84.5056 42.9831H69.6221V45.2303H84.5056V42.9831Z" fill="#E30000"/>
<path d="M52.8608 42.9831H47.4693V45.2303H52.8608V42.9831Z" fill="#E30000"/>
<path d="M81.7876 79.2319L81.912 78.9521H90.4792C92.4227 78.9521 94 77.3592 94 75.3965V3.55566C94 1.59293 92.4227 0 90.4792 0H3.52078C1.57731 0 0 1.59293 0 3.55566V75.3965C0 77.3592 1.57731 78.9521 3.52078 78.9521H53.2811L53.3773 79.2982C53.6519 80.2962 53.7951 81.3297 53.7998 82.3656V83.0957H53.659C52.2483 83.0957 51.1029 84.2501 51.1029 85.6771V91.5605C51.1029 92.7528 51.7155 93.7958 52.6403 94.3955C53.1989 94.7772 53.4055 95 54.1307 95H80.5553C80.7901 95 81.0201 94.9763 81.2431 94.9313H81.2689C82.7969 94.9313 84.0339 93.6797 84.0339 92.1389V86.3171C84.0339 84.5369 83.0739 83.0957 81.3135 83.0957L81.3276 81.3392C81.3369 80.6067 81.4919 79.8979 81.7876 79.2319ZM4.57231 2.24717H89.4277C90.7233 2.24717 91.7749 3.30913 91.7749 4.61761V12.7838H2.22513V4.61761C2.22513 3.30913 3.27667 2.24717 4.57231 2.24717ZM2.22513 74.3322V15.0309H91.7749V74.3322C91.7749 75.6406 90.7233 76.7026 89.4277 76.7026H83.3931L83.7311 76.0175C84.2381 74.9911 84.5056 73.8415 84.508 72.6942V71.3264C84.6113 69.6671 84.508 63.3713 84.508 62.544C84.508 61.1193 84.3906 59.8772 84.1536 58.8437C83.6043 56.4093 82.5082 54.7452 80.8957 53.9014C79.6634 53.2566 78.4382 53.2566 77.6613 53.3609C76.1426 51.7775 74.4621 51.4977 73.2791 51.5546C72.596 51.5854 72.0116 51.73 71.5821 51.8818C70.5258 51.1019 69.3945 50.7274 68.2303 50.7748C67.1717 50.8151 66.3736 50.9454 65.6249 51.2323L65.5216 51.2228V37.9744C65.5216 35.7272 63.8598 33.7764 61.6441 33.5725C59.1068 33.3402 56.9685 35.3598 56.9685 37.8748V61.712L52.7154 54.264C51.5254 52.2634 48.9998 51.5807 46.9718 52.7209C44.9439 53.8611 44.1857 56.3856 45.2467 58.4692L45.2701 58.5237L50.6992 73.5191C50.7203 73.5665 50.7414 73.6139 50.7625 73.6613L52.3492 76.7026H4.57231C3.27667 76.7026 2.22513 75.643 2.22513 74.3322ZM81.8322 86.6158V88.0333H81.8158V91.5392H81.8228C81.8228 92.0156 81.5505 92.4233 81.1633 92.6225C81.0576 92.6604 80.9473 92.6865 80.8276 92.6865H54.3631C54.1706 92.6865 53.9899 92.6296 53.8327 92.5371C53.5252 92.3167 53.3233 91.9516 53.3233 91.5415V90.124H53.3397V86.6158H53.3327C53.3327 85.9426 53.8679 85.4021 54.518 85.4021H80.6469C81.3041 85.3997 81.8322 85.9497 81.8322 86.6158ZM80.3582 77.2146C79.5507 78.4378 79.1189 79.8624 79.1095 81.3297L79.0883 83.0933H56.0249V82.3656C56.0226 80.1137 55.4733 77.8689 54.4335 75.8753L52.7553 72.6539L47.3145 57.6324C47.2934 57.5779 47.2699 57.5234 47.2418 57.4712C47.0047 57.0422 46.8803 56.5515 46.9812 56.0703C47.2465 54.7927 48.4341 54.1289 49.535 54.4229C50.0584 54.5627 50.5137 54.9135 50.7813 55.39L54.1589 61.3019C54.7668 62.3662 56.3217 64.0706 57.5 63.753C58.6759 63.4353 59.1889 61.1715 59.1889 59.9412V37.9436C59.1889 36.9053 59.9165 35.9785 60.9305 35.8268C62.198 35.6395 63.2918 36.6304 63.2918 37.8748V52.2563C63.2895 52.8394 63.7378 53.3325 64.3128 53.3822L65.7681 53.5055L65.9887 53.5245V53.4794C66.0873 53.4771 66.2258 53.4723 66.5286 53.4059C66.538 53.3988 67.1905 52.965 68.3148 52.9247C69.0659 52.8939 69.8334 53.2282 70.5939 53.9203C70.9647 54.2546 71.5304 54.3186 71.9693 54.0626C71.9787 54.0626 72.5679 53.7354 73.38 53.6975C74.4855 53.6406 75.4643 54.1432 76.2999 55.1933C76.605 55.5678 77.1284 55.7195 77.6002 55.5583C77.6096 55.5583 78.7222 55.217 79.7784 55.774C80.7924 56.3074 81.5177 57.4926 81.9237 59.2917C82.2453 60.695 82.3744 69.3945 82.2876 71.3288H82.2805V72.6966C82.2829 73.7372 81.9824 74.7494 81.4097 75.6193L80.3582 77.2146Z" fill="#E30000"/>
</svg>
